\relax 
\@writefile{toc}{\contentsline {section}{\numberline {1}Executable format}{1}}
\@writefile{toc}{\contentsline {section}{\numberline {2}MOV instruction}{2}}
\@writefile{toc}{\contentsline {subsection}{\numberline {2.1}Summary}{2}}
\@writefile{toc}{\contentsline {subsection}{\numberline {2.2}Subscript}{3}}
\@writefile{toc}{\contentsline {subsection}{\numberline {2.3}Actions}{3}}
\@writefile{toc}{\contentsline {section}{\numberline {3}ST instruction}{3}}
\@writefile{toc}{\contentsline {section}{\numberline {4}LD instruction}{3}}
\@writefile{toc}{\contentsline {section}{\numberline {5}DMOV instruction}{3}}
\@writefile{toc}{\contentsline {section}{\numberline {6}DST instruction}{4}}
\@writefile{toc}{\contentsline {section}{\numberline {7}DLD instruction}{4}}
\@writefile{toc}{\contentsline {section}{\numberline {8}AND instruction}{4}}
\@writefile{toc}{\contentsline {section}{\numberline {9}OR instruction}{4}}
\@writefile{toc}{\contentsline {section}{\numberline {10}XOR instruction}{4}}
\@writefile{toc}{\contentsline {section}{\numberline {11}NOT instruction}{4}}
\@writefile{toc}{\contentsline {section}{\numberline {12}ADD instruction}{4}}
\@writefile{toc}{\contentsline {section}{\numberline {13}SUB instruction}{5}}
